<?xml version="1.0" encoding="utf-8"?>
<!-- Generator: Adobe Illustrator 23.0.6, SVG Export Plug-In . SVG Version: 6.00 Build 0)  -->
<svg version="1.1" id="Слой_1" xmlns="http://www.w3.org/2000/svg" xmlns:xlink="http://www.w3.org/1999/xlink" x="0px" y="0px"
	 viewBox="0 0 86.28 86.28" style="enable-background:new 0 0 86.28 86.28;" xml:space="preserve">
<style type="text/css">
	.st0{fill:#FFFFFF;}
	.st1{fill:#E6EEEA;}
	.st2{fill:#28987C;}
</style>
<g>
	<g>
		<path class="st0" d="M43.14-0.07C19.38-0.07,0,19.31,0,43.07C0,64.1,15.19,81.69,35.16,85.45l-2.97-3.26
			C15.08,77.4,2.5,61.68,2.5,43.07c0-22.41,18.23-40.64,40.64-40.64s40.64,18.23,40.64,40.64c0,20.33-15.01,37.22-34.53,40.18
			c-1.82,1.53-3,2.46-3.03,2.48c-0.11,0.08-0.24,0.13-0.37,0.13c-0.16,0-0.32-0.07-0.44-0.19l-1.79-1.97
			c-0.16,0-0.32,0.01-0.48,0.01c-1.13,0-2.24-0.06-3.35-0.15c-1.19,1.01-2.13,1.77-2.68,2.22c1.97,0.28,3.98,0.43,6.03,0.43
			c23.76,0,43.14-19.38,43.14-43.14C86.28,19.31,66.9-0.07,43.14-0.07z"/>
		<path class="st0" d="M41.91,81.82l-0.04-0.05c-0.02,0.02-0.03,0.03-0.05,0.05C41.85,81.82,41.88,81.82,41.91,81.82z"/>
		<path class="st0" d="M26.76,35.15c0.31-0.27,2.52-1.23,4.91,1.28l6.35,6.95c0.82-0.22,1.83-0.06,3.02,0.47
			c0.15,0.07,0.26,0.2,0.3,0.36l0.89,3.77l2.67,2.92c0.19-0.25,0.44-0.81,0.4-1.33c-0.25-3.42-0.23-6.75,1.59-8.02
			c0.98-0.68,2.32-0.64,4,0.11c0.17,0.08,0.29,0.23,0.33,0.41l2.43,10.33c0.02,0.11,0.02,0.22-0.01,0.32l-2.95,9.17l9.67,10.33
			c0.22,0.23,0.21,0.6-0.01,0.82c-2.86,2.92-5.79,5.61-8.25,7.77c17.08-4.06,29.82-19.43,29.82-37.73
			c0-21.39-17.4-38.79-38.79-38.79S4.35,21.68,4.35,43.07c0,16.65,10.55,30.89,25.32,36.37L11.26,59.26
			c-1.34-1.47-2.01-2.76-2.09-4.05c-0.09-1.39,0.55-2.58,1.56-2.88c0.27-0.08,0.55-0.09,0.83-0.05c-0.98-1.36-1.79-3.1-1.03-4.54
			c0.11-0.21,0.26-0.42,0.42-0.62c0.63-0.6,1.58-1.03,2.95-0.54c-0.99-1.49-1.72-3.35-0.17-4.8c0.52-0.49,1.14-0.71,1.81-0.69
			c0.46,0.02,0.94,0.16,1.44,0.41c-0.19-0.56-0.3-1.15-0.27-1.73c0.05-0.89,0.44-1.64,1.12-2.18c0.3-0.26,2.4-1.16,4.67,1.23
			l0.37,0.41c0.46-0.31,0.98-0.46,1.53-0.43c0.45,0.02,0.92,0.15,1.41,0.38c-0.18-0.55-0.28-1.13-0.25-1.71
			C25.62,36.52,26.03,35.72,26.76,35.15z M25.07,25.09c0-3.57,2.96-6.48,6.6-6.48h4.65c0.93-0.5,1.93-0.43,1.98-0.43l23.86,0
			c0.01,0,1.01-0.08,1.94,0.43h4.65c3.64,0,6.6,2.91,6.6,6.48s-2.96,6.48-6.6,6.48h-3.55c-0.27,0.8-0.56,1.2-0.59,1.23
			c-0.43,0.56-4.29,5.46-6.55,5.46h-15.7c-2.26,0-6.12-4.9-6.56-5.46c-0.02-0.03-0.32-0.43-0.59-1.23h-3.55
			C28.03,31.57,25.07,28.66,25.07,25.09z"/>
		<path class="st0" d="M31.67,30.25h3.23c-0.08-0.5-0.13-1.06-0.13-1.71v-6.92c-0.01-0.65,0.11-1.2,0.33-1.68h-3.42
			c-2.91,0-5.27,2.31-5.27,5.16S28.76,30.25,31.67,30.25z"/>
		<path class="st0" d="M65.65,28.53c0,0.65-0.06,1.22-0.13,1.71h3.23c2.91,0,5.27-2.31,5.27-5.16s-2.37-5.16-5.27-5.16h-3.42
			c0.22,0.48,0.34,1.04,0.33,1.69V28.53z"/>
	</g>
	<g>
		<path class="st1" d="M16.55,48.27c0.01,0.02,0.01,0.03,0.02,0.05l2.29,2.4c0.16-0.11,0.33-0.21,0.52-0.27
			c0.25-0.08,0.51-0.09,0.78-0.07c-1-1.41-1.8-3.19-1.01-4.68c0.1-0.19,0.23-0.36,0.37-0.53l-1.9-1.96
			c-0.78-0.67-1.52-1.05-2.13-1.08c-0.39-0.02-0.73,0.12-1.04,0.41c-1.34,1.26-0.01,3.14,1.48,4.95
			C16.18,47.79,16.4,48.06,16.55,48.27z"/>
		<path class="st1" d="M17.75,53.49c-0.04-0.72,0.1-1.39,0.38-1.92l-2.69-2.82c-1.63-1.38-2.88-1.7-3.71-0.9
			c-0.08,0.09-0.18,0.24-0.25,0.38c-0.78,1.47,1.17,3.89,2.38,5.09c0.1,0.03,0.2,0.07,0.27,0.15l6.23,6.51
			c0.1,0.11,0.16,0.25,0.16,0.4c0,0.15-0.06,0.29-0.17,0.39c-0.11,0.1-0.25,0.16-0.39,0.16c-0.15,0-0.3-0.06-0.41-0.17l-5.99-6.27
			c-0.5-0.43-1.58-1.17-2.28-1.17c-0.08,0-0.15,0.01-0.22,0.03c-0.44,0.13-0.87,0.81-0.81,1.8c0.06,1.04,0.64,2.12,1.81,3.4
			l19.71,21.6l1.18,1.3l1.12,1.23l2.21,2.43c0.41-0.33,1.13-0.91,2.06-1.68c0.3-0.25,0.63-0.53,0.98-0.82
			c0.32-0.27,0.65-0.55,1-0.85c0.28-0.24,0.56-0.49,0.86-0.75L19.92,57.72C18.52,56.19,17.83,54.84,17.75,53.49z"/>
		<path class="st1" d="M38.9,44.34l1.86,2.04l-0.39-1.67C39.81,44.48,39.32,44.36,38.9,44.34z"/>
		<path class="st1" d="M20.44,44.5c0.57-0.26,1.28-0.35,2.16-0.06c-0.91-1.4-1.54-3.07-0.48-4.48l-0.39-0.43
			c-1.83-1.92-3.26-1.1-3.28-1.09c-0.42,0.33-0.65,0.79-0.69,1.38c-0.06,1.18,0.71,2.54,1.3,3.27L20.44,44.5z"/>
		<path class="st1" d="M49.45,61.85l3-9.34l-2.32-9.87c-1.14-0.47-1.99-0.5-2.56-0.11c-1.34,0.94-1.29,4.21-1.09,6.96
			c0.07,0.96-0.44,2.29-1.23,2.63c-0.39,0.17-0.8,0.08-1.09-0.24l-1.39-1.52l-0.73-0.8l-0.73-0.8l-3.64-3.98l-0.36-0.4l-0.35-0.38
			l-6.17-6.75c-1.87-1.96-3.33-1.13-3.35-1.13c-0.42,0.33-0.66,0.8-0.69,1.4c-0.07,1.41,1.02,3.1,1.63,3.69
			c0.03,0.03,0.05,0.05,0.07,0.08c0.01,0.02,0.02,0.04,0.03,0.06l7.13,7.35l0.53,0.55l0.55,0.56l0.69,0.71
			c0.11,0.11,0.17,0.26,0.16,0.41c0,0.16-0.06,0.3-0.18,0.41c-0.11,0.11-0.25,0.17-0.41,0.17h-0.01c-0.06,0-0.12-0.02-0.18-0.04
			c-0.08-0.03-0.16-0.07-0.23-0.14l-0.33-0.34l-0.56-0.58l-8.08-8.34c-0.02-0.02-0.04-0.03-0.06-0.05
			c-1.16-1.29-2.28-2.02-3.15-2.05c-0.23-0.01-0.45,0.04-0.66,0.15c-0.13,0.07-0.26,0.15-0.38,0.26c-0.02,0.02-0.03,0.03-0.05,0.05
			c-0.14,0.14-0.24,0.28-0.32,0.43c-0.66,1.26,0.56,2.95,1.9,4.59c0.26,0.31,0.48,0.59,0.64,0.81c0.05,0.07,0.06,0.12,0.09,0.18
			l7.83,8.19c0.22,0.23,0.21,0.6-0.02,0.82c-0.11,0.11-0.26,0.16-0.4,0.16c-0.15,0-0.31-0.06-0.42-0.18l-7.98-8.34
			c-0.03-0.03-0.07-0.05-0.09-0.08c-1.26-1.12-2.29-1.63-3.11-1.54c-0.06,0.01-0.13,0.01-0.19,0.02c-0.06,0.01-0.11,0.04-0.16,0.06
			c-0.16,0.06-0.31,0.14-0.46,0.26c-0.03,0.03-0.07,0.04-0.1,0.08c-0.01,0.01-0.01,0.02-0.02,0.02c-0.03,0.04-0.06,0.08-0.09,0.13
			c-0.05,0.07-0.1,0.15-0.14,0.23c-0.81,1.52,1.28,4.06,2.51,5.28c0.07,0.03,0.14,0.07,0.19,0.13l6.46,6.76
			c0.11,0.11,0.16,0.26,0.16,0.42c0,0.16-0.07,0.3-0.18,0.41s-0.26,0.16-0.4,0.16c-0.15,0-0.31-0.06-0.42-0.18l-6.09-6.37
			c-0.04-0.02-0.09-0.04-0.13-0.08c-0.62-0.55-1.7-1.23-2.37-1.23c-0.08,0-0.15,0.01-0.22,0.03c-0.01,0-0.02,0.01-0.02,0.01
			c-0.05,0.02-0.09,0.06-0.13,0.08c-0.04,0.03-0.09,0.04-0.13,0.08c-0.11,0.1-0.22,0.24-0.3,0.42c-0.02,0.05-0.03,0.11-0.05,0.17
			c-0.02,0.05-0.04,0.11-0.05,0.17c-0.07,0.26-0.12,0.55-0.1,0.89c0.07,1.06,0.66,2.18,1.87,3.5l21.25,23.29l0.36,0.39l0.36,0.39
			l0.78,0.86l0.83,0.91l0.83,0.91l0.72,0.79c0.27-0.22,0.66-0.54,1.15-0.93c0.38-0.31,0.82-0.68,1.31-1.09
			c0.41-0.35,0.86-0.73,1.34-1.14c2.58-2.21,6.02-5.28,9.37-8.68l-9.52-10.17C49.43,62.28,49.38,62.05,49.45,61.85z"/>
		<path class="st1" d="M64.08,19.93c-0.04-0.04-0.07-0.1-0.11-0.14c-0.69-0.64-1.75-0.56-1.76-0.56h-0.16l-23.67,0h-0.12
			c-0.01,0-0.07,0-0.16,0c-0.33,0-1.1,0.06-1.65,0.56c-0.04,0.04-0.07,0.09-0.11,0.14c-0.34,0.39-0.52,0.95-0.51,1.68v6.93
			c0,2.49,0.81,3.61,0.82,3.62c1.51,1.95,4.4,5.04,5.72,5.04h15.7c1.32,0,4.21-3.09,5.72-5.05c0.01-0.01,0.82-1.12,0.82-3.61v-6.93
			C64.6,20.88,64.42,20.32,64.08,19.93z M57.81,35.05H42.6c-0.37,0-0.67-0.32-0.67-0.71s0.3-0.72,0.67-0.72h15.22
			c0.37,0,0.67,0.32,0.67,0.71S58.18,35.05,57.81,35.05z M62.95,29.31H37.46c-0.37,0-0.67-0.32-0.67-0.71s0.3-0.72,0.67-0.72h25.49
			c0.37,0,0.67,0.32,0.67,0.72S63.32,29.31,62.95,29.31z M62.95,23.56H37.46c-0.37,0-0.67-0.32-0.67-0.72s0.3-0.71,0.67-0.71h25.49
			c0.37,0,0.67,0.32,0.67,0.71S63.32,23.56,62.95,23.56z"/>
	</g>
	<g>
		<path class="st2" d="M43.14,2.43C20.73,2.43,2.5,20.66,2.5,43.07c0,18.61,12.58,34.33,29.69,39.13l2.97,3.26l0.66,0.72
			c0.1,0.11,0.25,0.17,0.39,0.17c0.11,0,0.23-0.04,0.33-0.11c0.01-0.01,0.23-0.18,0.58-0.46c0.56-0.45,1.49-1.21,2.68-2.22
			c1.1,0.09,2.22,0.15,3.35,0.15c0.16,0,0.32-0.01,0.48-0.01l1.79,1.97c0.12,0.13,0.28,0.19,0.44,0.19c0.13,0,0.26-0.04,0.37-0.13
			c0.03-0.02,1.21-0.95,3.03-2.48c19.52-2.96,34.53-19.85,34.53-40.18C83.78,20.66,65.55,2.43,43.14,2.43z M52.11,80.8
			c2.45-2.15,5.39-4.85,8.25-7.77c0.22-0.23,0.23-0.59,0.01-0.82l-9.67-10.33l2.95-9.17c0.03-0.1,0.04-0.21,0.01-0.32l-2.43-10.33
			c-0.04-0.18-0.17-0.33-0.33-0.41c-1.68-0.75-3.02-0.79-4-0.11c-1.82,1.27-1.84,4.61-1.59,8.02c0.04,0.53-0.21,1.09-0.4,1.33
			l-2.67-2.92l-0.89-3.77c-0.04-0.16-0.15-0.29-0.3-0.36c-1.19-0.54-2.2-0.69-3.02-0.47l-6.35-6.95c-2.39-2.51-4.6-1.55-4.91-1.28
			c-0.73,0.57-1.14,1.37-1.19,2.3c-0.03,0.57,0.07,1.16,0.25,1.71c-0.49-0.24-0.96-0.36-1.41-0.38c-0.56-0.03-1.07,0.12-1.53,0.43
			l-0.37-0.41c-2.27-2.39-4.37-1.49-4.67-1.23c-0.69,0.54-1.08,1.3-1.12,2.18c-0.03,0.58,0.08,1.17,0.27,1.73
			c-0.5-0.25-0.98-0.39-1.44-0.41c-0.67-0.02-1.29,0.2-1.81,0.69c-1.55,1.46-0.82,3.31,0.17,4.8c-1.37-0.49-2.32-0.06-2.95,0.54
			c-0.17,0.19-0.31,0.4-0.42,0.62c-0.77,1.45,0.04,3.19,1.03,4.54c-0.29-0.04-0.57-0.03-0.83,0.05c-1,0.31-1.64,1.49-1.56,2.88
			c0.08,1.29,0.74,2.58,2.09,4.05l18.41,20.18C14.9,73.96,4.35,59.72,4.35,43.07c0-21.39,17.4-38.79,38.79-38.79
			s38.79,17.4,38.79,38.79C81.93,61.37,69.18,76.74,52.11,80.8z M45.92,84.45l-0.72-0.79l-0.83-0.91l-0.83-0.91l-0.78-0.86
			l-0.36-0.39l-0.36-0.39L20.8,56.92c-1.21-1.33-1.8-2.44-1.87-3.5c-0.02-0.35,0.03-0.63,0.1-0.89c0.02-0.06,0.03-0.11,0.05-0.17
			c0.02-0.05,0.03-0.12,0.05-0.17c0.09-0.18,0.19-0.31,0.3-0.42c0.04-0.04,0.09-0.06,0.13-0.08c0.04-0.03,0.09-0.07,0.13-0.08
			c0.01,0,0.02-0.01,0.02-0.01c0.07-0.02,0.14-0.03,0.22-0.03c0.67,0,1.75,0.68,2.37,1.23c0.04,0.03,0.09,0.05,0.13,0.08l6.09,6.37
			c0.11,0.12,0.27,0.18,0.42,0.18c0.15,0,0.29-0.05,0.4-0.16s0.18-0.25,0.18-0.41c0-0.16-0.05-0.3-0.16-0.42l-6.46-6.76
			c-0.06-0.06-0.12-0.1-0.19-0.13c-1.24-1.22-3.32-3.75-2.51-5.28c0.04-0.08,0.09-0.16,0.14-0.23c0.03-0.05,0.06-0.09,0.09-0.13
			c0.01-0.01,0.01-0.02,0.02-0.02c0.03-0.03,0.07-0.05,0.1-0.08c0.14-0.11,0.29-0.2,0.46-0.26c0.05-0.02,0.1-0.04,0.16-0.06
			c0.06-0.01,0.13-0.02,0.19-0.02c0.81-0.08,1.85,0.42,3.11,1.54c0.02,0.02,0.06,0.05,0.09,0.08l7.98,8.34
			c0.11,0.12,0.27,0.18,0.42,0.18c0.15,0,0.29-0.05,0.4-0.16c0.23-0.22,0.24-0.59,0.02-0.82l-7.83-8.19
			c-0.03-0.06-0.04-0.11-0.09-0.18c-0.16-0.22-0.38-0.5-0.64-0.81c-1.34-1.64-2.57-3.34-1.9-4.59c0.08-0.15,0.19-0.29,0.32-0.43
			c0.02-0.02,0.03-0.03,0.05-0.05c0.12-0.11,0.25-0.2,0.38-0.26c0.21-0.1,0.43-0.15,0.66-0.15c0.87,0.04,1.98,0.76,3.15,2.05
			c0.02,0.02,0.04,0.03,0.06,0.05l8.08,8.34l0.56,0.58l0.33,0.34c0.06,0.07,0.14,0.11,0.23,0.14c0.06,0.02,0.12,0.04,0.18,0.04h0.01
			c0.15,0,0.3-0.06,0.41-0.17c0.11-0.11,0.17-0.25,0.18-0.41c0-0.16-0.06-0.3-0.16-0.41l-0.69-0.71l-0.55-0.56l-0.53-0.55
			l-7.13-7.35c-0.01-0.02-0.02-0.04-0.03-0.06c-0.02-0.03-0.04-0.06-0.07-0.08c-0.6-0.59-1.7-2.27-1.63-3.69
			c0.03-0.6,0.27-1.06,0.69-1.4c0.02-0.01,1.48-0.83,3.35,1.13l6.17,6.75l0.35,0.38l0.36,0.4l3.64,3.98l0.73,0.8l0.73,0.8l1.39,1.52
			c0.28,0.31,0.7,0.4,1.09,0.24c0.79-0.34,1.3-1.67,1.23-2.63c-0.2-2.75-0.26-6.02,1.09-6.96c0.56-0.4,1.42-0.36,2.56,0.11
			l2.32,9.87l-3,9.34c-0.07,0.21-0.02,0.43,0.13,0.59l9.52,10.17c-3.36,3.4-6.79,6.47-9.37,8.68c-0.48,0.41-0.93,0.79-1.34,1.14
			c-0.49,0.41-0.93,0.78-1.31,1.09C46.58,83.91,46.19,84.23,45.92,84.45z M41.82,81.82c0.02-0.02,0.03-0.03,0.05-0.05l0.04,0.05
			C41.88,81.82,41.85,81.82,41.82,81.82z M38.9,44.34c0.42,0.02,0.91,0.14,1.47,0.37l0.39,1.67L38.9,44.34z M22.6,44.44
			c-0.88-0.29-1.59-0.2-2.16,0.06l-1.37-1.41c-0.59-0.73-1.37-2.09-1.3-3.27c0.03-0.59,0.27-1.05,0.69-1.38
			c0.01-0.01,1.45-0.83,3.28,1.09l0.39,0.43C21.06,41.37,21.69,43.04,22.6,44.44z M17.63,43.21l1.9,1.96
			c-0.14,0.17-0.27,0.34-0.37,0.53c-0.79,1.49,0.01,3.27,1.01,4.68c-0.27-0.03-0.53-0.01-0.78,0.07c-0.19,0.06-0.36,0.15-0.52,0.27
			l-2.29-2.4c-0.01-0.02-0.01-0.03-0.02-0.05c-0.15-0.21-0.37-0.48-0.61-0.78c-1.48-1.81-2.82-3.69-1.48-4.95
			c0.31-0.29,0.65-0.42,1.04-0.41C16.11,42.16,16.84,42.54,17.63,43.21z M31.75,80.15l-19.71-21.6c-1.17-1.28-1.75-2.37-1.81-3.4
			c-0.06-0.99,0.37-1.67,0.81-1.8c0.07-0.02,0.14-0.03,0.22-0.03c0.7,0,1.78,0.74,2.28,1.17l5.99,6.27
			c0.11,0.11,0.26,0.17,0.41,0.17c0.14,0,0.28-0.05,0.39-0.16c0.11-0.1,0.17-0.24,0.17-0.39c0-0.15-0.05-0.29-0.16-0.4l-6.23-6.51
			c-0.07-0.08-0.17-0.12-0.27-0.15c-1.21-1.2-3.16-3.61-2.38-5.09c0.07-0.14,0.17-0.28,0.25-0.38c0.83-0.79,2.08-0.48,3.71,0.9
			l2.69,2.82c-0.28,0.53-0.42,1.2-0.38,1.92c0.08,1.35,0.78,2.69,2.18,4.23l21.23,23.27c-0.3,0.26-0.58,0.51-0.86,0.75
			c-0.35,0.3-0.68,0.58-1,0.85c-0.35,0.29-0.67,0.57-0.98,0.82c-0.93,0.78-1.65,1.36-2.06,1.68l-2.21-2.43l-1.12-1.23L31.75,80.15z"
			/>
		<path class="st2" d="M68.74,18.6H64.1c-0.93-0.51-1.93-0.43-1.94-0.43l-23.86,0c-0.05,0-1.05-0.08-1.98,0.43h-4.65
			c-3.64,0-6.6,2.91-6.6,6.48s2.96,6.48,6.6,6.48h3.55c0.27,0.8,0.56,1.2,0.59,1.23c0.43,0.56,4.29,5.46,6.56,5.46h15.7
			c2.26,0,6.12-4.9,6.55-5.46c0.02-0.03,0.32-0.43,0.59-1.23h3.55c3.64,0,6.6-2.91,6.6-6.48S72.38,18.6,68.74,18.6z M42.36,37.19
			c-1.32,0-4.21-3.09-5.72-5.04c-0.01-0.01-0.82-1.12-0.82-3.62v-6.93c-0.01-0.73,0.17-1.28,0.51-1.68c0.04-0.04,0.07-0.1,0.11-0.14
			c0.54-0.5,1.31-0.56,1.65-0.56c0.09,0,0.15,0,0.16,0h0.12l23.67,0h0.16c0.01,0,1.07-0.08,1.76,0.56c0.04,0.04,0.07,0.09,0.11,0.14
			c0.34,0.39,0.52,0.95,0.51,1.68v6.93c0,2.49-0.81,3.61-0.82,3.61c-1.51,1.95-4.4,5.05-5.72,5.05H42.36z M31.67,30.25
			c-2.91,0-5.27-2.31-5.27-5.16s2.37-5.16,5.27-5.16h3.42c-0.22,0.48-0.34,1.04-0.33,1.68v6.92c0,0.65,0.06,1.22,0.13,1.71H31.67z
			 M68.74,30.25h-3.23c0.08-0.5,0.13-1.06,0.13-1.71v-6.92c0.01-0.65-0.11-1.21-0.33-1.69h3.42c2.91,0,5.27,2.31,5.27,5.16
			S71.65,30.25,68.74,30.25z"/>
		<path class="st2" d="M37.46,23.56h25.49c0.37,0,0.67-0.32,0.67-0.72s-0.3-0.71-0.67-0.71H37.46c-0.37,0-0.67,0.32-0.67,0.71
			S37.09,23.56,37.46,23.56z"/>
		<path class="st2" d="M63.62,28.59c0-0.39-0.3-0.72-0.67-0.72H37.46c-0.37,0-0.67,0.32-0.67,0.72s0.3,0.71,0.67,0.71h25.49
			C63.32,29.31,63.62,28.99,63.62,28.59z"/>
		<path class="st2" d="M57.81,33.62H42.6c-0.37,0-0.67,0.32-0.67,0.72s0.3,0.71,0.67,0.71h15.22c0.37,0,0.67-0.32,0.67-0.72
			S58.18,33.62,57.81,33.62z"/>
	</g>
</g>
</svg>
