<?xml version="1.0" encoding="utf-8"?>
<!-- Generator: Adobe Illustrator 23.0.6, SVG Export Plug-In . SVG Version: 6.00 Build 0)  -->
<svg version="1.1" id="Слой_1" xmlns="http://www.w3.org/2000/svg" xmlns:xlink="http://www.w3.org/1999/xlink" x="0px" y="0px"
	 viewBox="0 0 26.75 26.72" style="enable-background:new 0 0 26.75 26.72;" xml:space="preserve">
<style type="text/css">
	.st0{fill:#E6EEEA;}
</style>
<g>
	<path class="st0" d="M13.36,0C5.99,0,0,5.99,0,13.36s5.99,13.36,13.36,13.36c7.37,0,13.36-5.99,13.36-13.36S20.73,0,13.36,0z
		 M13.36,25.75c-6.83,0-12.39-5.56-12.39-12.39c0-6.83,5.56-12.39,12.39-12.39s12.39,5.56,12.39,12.39
		C25.75,20.19,20.19,25.75,13.36,25.75z"/>
	<polygon class="st0" points="18.55,7.53 13.36,12.71 8.18,7.53 7.53,8.18 12.71,13.36 7.53,18.55 8.18,19.2 13.36,14.01 
		18.55,19.2 19.2,18.55 14.01,13.36 19.2,8.18 	"/>
</g>
</svg>
