<?xml version="1.0" encoding="utf-8"?>
<!-- Generator: Adobe Illustrator 21.1.0, SVG Export Plug-In . SVG Version: 6.00 Build 0)  -->
<!DOCTYPE svg PUBLIC "-//W3C//DTD SVG 1.1//EN" "http://www.w3.org/Graphics/SVG/1.1/DTD/svg11.dtd" [
	<!ENTITY st0 "fill:#393939;">
	<!ENTITY st1 "fill:#FFFFFF;fill-opacity:0.1961;">
	<!ENTITY st2 "fill:#FFFFFF;">
	<!ENTITY st3 "fill:#FFFFFF;fill-opacity:0.5;">
]>
<svg version="1.1"
	 id="svg4380" inkscape:version="0.91 r13725" sodipodi:docname="security-code.svg" xmlns:cc="http://creativecommons.org/ns#" xmlns:dc="http://purl.org/dc/elements/1.1/" xmlns:inkscape="http://www.inkscape.org/namespaces/inkscape" xmlns:rdf="http://www.w3.org/1999/02/22-rdf-syntax-ns#" xmlns:sodipodi="http://sodipodi.sourceforge.net/DTD/sodipodi-0.dtd" xmlns:svg="http://www.w3.org/2000/svg"
	 xmlns="http://www.w3.org/2000/svg" xmlns:xlink="http://www.w3.org/1999/xlink" x="0px" y="0px" viewBox="0 0 750 471"
	 style="enable-background:new 0 0 750 471;" xml:space="preserve">
<sodipodi:namedview  bordercolor="#666666" borderopacity="1" gridtolerance="10" guidetolerance="10" id="namedview4427" inkscape:current-layer="text4189" inkscape:cx="425.2085" inkscape:cy="157.0196" inkscape:pageopacity="0" inkscape:pageshadow="2" inkscape:window-height="851" inkscape:window-maximized="1" inkscape:window-width="1440" inkscape:window-x="0" inkscape:window-y="301" inkscape:zoom="1.0333187" objecttolerance="10" pagecolor="#ffffff" showgrid="false">
	</sodipodi:namedview>
<title  id="title4382">security-code</title>
<desc  id="desc4384">Created with Sketch.</desc>
<g id="Page-1">
	<g id="security-code">
		<g id="g4390">
			<g id="g4392">
				<path id="Rectangle-1" style="&st0;" d="M710,0H40C17.9,0,0,17.9,0,40v391c0,22.1,17.9,40,40,40h670c22.1,0,40-17.9,40-40V40
					C750,17.9,732.1,0,710,0z"/>
				
					<g id="text4185" transform="translate(374.948150, 300.000000) scale(-1, 1) translate(-374.948150, -300.000000) translate(50.948150, 279.000000)">
					<polygon id="path4219" style="&st1;" points="27.1,31.4 27.1,27.6 22,27.6 22,16.3 17.8,16.3 17.4,27.6 5.9,27.6 16.5,2.5 
						12.6,0.8 0.9,27.9 0.9,31.4 17.3,31.4 17.3,41 22,41 22,31.4 					"/>
					<path id="path4221" style="&st1;" d="M46.7,0.8c-4,0-7.9,1.4-11.2,4.6l2.6,2.9c2.6-2.5,5-3.7,8.4-3.7c4.2,0,7.5,2.4,7.5,6.7
						c0,4.8-3.7,7-7.5,7h-2.4l-0.6,3.8h3.3c4.7,0,8.2,1.8,8.2,7.5c0,4.9-3.3,8.1-8.9,8.1c-3.2,0-6.6-1.3-8.8-4l-3.2,2.6
						c3,3.7,7.7,5.2,12.1,5.2c8.2,0,13.7-5.2,13.7-12c0-6.2-4.4-9.4-9-9.7c4.2-0.8,7.8-4.4,7.8-9.2C58.8,5.3,54.1,0.8,46.7,0.8
						L46.7,0.8z"/>
					<path id="path4223" style="&st1;" d="M81.2,0.8c-5.3,0-8.9,1.9-12.1,5.7L72.4,9C75,6.1,77.1,4.8,81,4.8c4.4,0,7.1,2.8,7.1,7.2
						c0,6.5-3.2,10.8-18.2,25.1V41h23.5l0.6-4.1H75.4C88.4,25,93.1,19.1,93.1,11.9C93.1,5.6,88.6,0.8,81.2,0.8L81.2,0.8z"/>
					<polygon id="path4225" style="&st1;" points="129.9,37.1 121.6,37.1 121.6,1.5 117.4,1.5 105.7,8.7 107.8,12.1 116.9,6.6 
						116.9,37.1 107.1,37.1 107.1,41 129.9,41 					"/>
					<polygon id="path4227" style="&st1;" points="199.5,31.4 199.5,27.6 194.4,27.6 194.4,16.3 190.2,16.3 189.8,27.6 178.3,27.6 
						188.9,2.5 184.9,0.8 173.3,27.9 173.3,31.4 189.7,31.4 189.7,41 194.4,41 194.4,31.4 					"/>
					<path id="path4229" style="&st1;" d="M219.1,0.8c-4,0-7.9,1.4-11.2,4.6l2.6,2.9c2.6-2.5,5-3.7,8.4-3.7c4.2,0,7.5,2.4,7.5,6.7
						c0,4.8-3.7,7-7.5,7h-2.4l-0.6,3.8h3.3c4.7,0,8.2,1.8,8.2,7.5c0,4.9-3.3,8.1-8.9,8.1c-3.2,0-6.6-1.3-8.8-4l-3.2,2.6
						c3,3.7,7.7,5.2,12.1,5.2c8.2,0,13.7-5.2,13.7-12c0-6.2-4.4-9.4-9-9.7c4.2-0.8,7.8-4.4,7.8-9.2C231.2,5.3,226.5,0.8,219.1,0.8
						L219.1,0.8z"/>
					<path id="path4231" style="&st1;" d="M253.6,0.8c-5.3,0-8.9,1.9-12.1,5.7l3.3,2.5c2.5-2.9,4.7-4.2,8.6-4.2
						c4.4,0,7.1,2.8,7.1,7.2c0,6.5-3.2,10.8-18.2,25.1V41h23.5l0.6-4.1h-18.6c13.1-11.9,17.7-17.8,17.7-25.1
						C265.5,5.6,261,0.8,253.6,0.8L253.6,0.8z"/>
					<polygon id="path4233" style="&st1;" points="302.3,37.1 294,37.1 294,1.5 289.8,1.5 278.1,8.7 280.2,12.1 289.2,6.6 
						289.2,37.1 279.5,37.1 279.5,41 302.3,41 					"/>
					<polygon id="path4235" style="&st1;" points="371.9,31.4 371.9,27.6 366.8,27.6 366.8,16.3 362.6,16.3 362.2,27.6 350.7,27.6 
						361.3,2.5 357.3,0.8 345.7,27.9 345.7,31.4 362.1,31.4 362.1,41 366.8,41 366.8,31.4 					"/>
					<path id="path4237" style="&st1;" d="M391.5,0.8c-4,0-7.9,1.4-11.2,4.6l2.6,2.9c2.6-2.5,5-3.7,8.4-3.7c4.2,0,7.5,2.4,7.5,6.7
						c0,4.8-3.7,7-7.5,7h-2.4l-0.6,3.8h3.3c4.7,0,8.2,1.8,8.2,7.5c0,4.9-3.3,8.1-8.9,8.1c-3.2,0-6.6-1.3-8.8-4l-3.2,2.6
						c3,3.7,7.7,5.2,12.1,5.2c8.2,0,13.7-5.2,13.7-12c0-6.2-4.4-9.4-9-9.7c4.2-0.8,7.8-4.4,7.8-9.2C403.6,5.3,398.9,0.8,391.5,0.8
						L391.5,0.8z"/>
					<path id="path4239" style="&st1;" d="M425.9,0.8c-5.3,0-8.9,1.9-12.1,5.7l3.3,2.5c2.5-2.9,4.7-4.2,8.6-4.2
						c4.4,0,7.1,2.8,7.1,7.2c0,6.5-3.2,10.8-18.2,25.1V41h23.5l0.6-4.1h-18.6c13.1-11.9,17.7-17.8,17.7-25.1
						C437.8,5.6,433.4,0.8,425.9,0.8L425.9,0.8z"/>
					<polygon id="path4241" style="&st1;" points="474.7,37.1 466.4,37.1 466.4,1.5 462.2,1.5 450.5,8.7 452.5,12.1 461.6,6.6 
						461.6,37.1 451.9,37.1 451.9,41 474.7,41 					"/>
					<polygon id="path4243" style="&st1;" points="544.3,31.4 544.3,27.6 539.1,27.6 539.1,16.3 535,16.3 534.5,27.6 523.1,27.6 
						533.7,2.5 529.7,0.8 518,27.9 518,31.4 534.5,31.4 534.5,41 539.1,41 539.1,31.4 					"/>
					<path id="path4245" style="&st1;" d="M563.9,0.8c-4,0-7.9,1.4-11.2,4.6l2.6,2.9c2.6-2.5,5-3.7,8.4-3.7c4.2,0,7.5,2.4,7.5,6.7
						c0,4.8-3.7,7-7.5,7h-2.4l-0.6,3.8h3.3c4.7,0,8.2,1.8,8.2,7.5c0,4.9-3.3,8.1-8.9,8.1c-3.2,0-6.6-1.3-8.8-4l-3.2,2.6
						c3,3.7,7.7,5.2,12.1,5.2c8.2,0,13.7-5.2,13.7-12c0-6.2-4.4-9.4-9-9.7c4.2-0.8,7.8-4.4,7.8-9.2C576,5.3,571.3,0.8,563.9,0.8
						L563.9,0.8z"/>
					<path id="path4247" style="&st1;" d="M598.3,0.8c-5.3,0-8.9,1.9-12.1,5.7l3.3,2.5c2.5-2.9,4.7-4.2,8.6-4.2
						c4.4,0,7.1,2.8,7.1,7.2c0,6.5-3.2,10.8-18.2,25.1V41h23.5l0.6-4.1h-18.6c13.1-11.9,17.7-17.8,17.7-25.1
						C610.2,5.6,605.8,0.8,598.3,0.8L598.3,0.8z"/>
					<polygon id="path4249" style="&st1;" points="647.1,37.1 638.8,37.1 638.8,1.5 634.6,1.5 622.9,8.7 624.9,12.1 634,6.6 
						634,37.1 624.2,37.1 624.2,41 647.1,41 					"/>
				</g>
				
					<g id="text4189" transform="translate(625.854250, 396.741180) scale(-1, 1) translate(-625.854250, -396.741180) translate(549.354250, 372.741180)">
					<g id="tspan4191">
						<path id="path4989" style="&st1;" d="M3.8,19.2v-2.7c2.5-0.2,4.3-0.7,5.3-1.2c1-0.6,1.8-2,2.2-4.1h2.8V39h-3.8V19.2
							C10.4,19.2,3.8,19.2,3.8,19.2z"/>
						<path id="path4991" style="&st1;" d="M26.1,19.2v-2.7c2.5-0.2,4.3-0.7,5.3-1.2c1-0.6,1.8-2,2.2-4.1h2.8V39h-3.8V19.2H26.1z"/>
						<path id="path4993" style="&st1;" d="M56.9,39c0.1-2.4,0.6-4.5,1.5-6.3c0.9-1.8,2.6-3.4,5.1-4.9l3.8-2.2
							c1.7-1,2.9-1.8,3.5-2.5c1.1-1.1,1.6-2.3,1.6-3.7c0-1.6-0.5-2.9-1.5-3.9c-1-1-2.3-1.4-3.9-1.4c-2.4,0-4.1,0.9-5,2.7
							c-0.5,1-0.8,2.3-0.8,4.1h-3.6c0-2.4,0.5-4.4,1.3-6c1.5-2.7,4.2-4.1,8.1-4.1c3.2,0,5.5,0.9,7,2.6c1.5,1.7,2.2,3.7,2.2,5.8
							c0,2.2-0.8,4.2-2.4,5.7c-0.9,0.9-2.5,2-4.9,3.4l-2.7,1.5c-1.3,0.7-2.3,1.4-3,2c-1.3,1.1-2.1,2.4-2.5,3.8h15.3V39H56.9z"/>
						<path id="path4995" style="&st1;" d="M88.3,39.8c-3.3,0-5.7-0.9-7.2-2.7c-1.5-1.8-2.2-4-2.2-6.6h3.7c0.2,1.8,0.5,3.1,1,3.9
							c0.9,1.5,2.6,2.2,4.9,2.2c1.8,0,3.3-0.5,4.5-1.5s1.7-2.3,1.7-3.8c0-1.9-0.6-3.3-1.8-4c-1.2-0.8-2.8-1.2-4.9-1.2
							c-0.2,0-0.5,0-0.7,0c-0.2,0-0.5,0-0.7,0V23c0.4,0,0.7,0.1,0.9,0.1c0.2,0,0.5,0,0.8,0c1.3,0,2.4-0.2,3.2-0.6
							c1.5-0.7,2.2-2,2.2-3.9c0-1.4-0.5-2.5-1.5-3.2c-1-0.8-2.1-1.1-3.5-1.1c-2.3,0-4,0.8-4.9,2.3c-0.5,0.9-0.8,2.1-0.8,3.7h-3.5
							c0-2.1,0.4-3.9,1.3-5.3c1.4-2.6,4-3.9,7.6-3.9c2.9,0,5.1,0.6,6.6,1.9c1.6,1.3,2.3,3.1,2.3,5.5c0,1.7-0.5,3.1-1.4,4.2
							c-0.6,0.7-1.3,1.2-2.2,1.6c1.5,0.4,2.6,1.2,3.4,2.3c0.8,1.1,1.3,2.6,1.3,4.2c0,2.7-0.9,4.8-2.6,6.5S91.5,39.8,88.3,39.8z"/>
						<path id="path4997" style="&st1;" d="M116.2,31.9c0.2,2,1.2,3.4,2.8,4.2c0.8,0.4,1.8,0.6,2.9,0.6c2.1,0,3.6-0.7,4.6-2
							s1.5-2.8,1.5-4.4c0-2-0.6-3.5-1.8-4.5c-1.2-1.1-2.6-1.6-4.3-1.6c-1.2,0-2.3,0.2-3.1,0.7c-0.9,0.5-1.6,1.1-2.2,2l-3-0.2
							l2.1-15.1h14.5v3.4h-11.9l-1.2,7.8c0.7-0.5,1.3-0.9,1.9-1.1c1-0.4,2.2-0.6,3.6-0.6c2.6,0,4.7,0.8,6.5,2.5
							c1.8,1.7,2.7,3.8,2.7,6.3c0,2.6-0.8,5-2.5,7c-1.6,2-4.2,3-7.8,3c-2.3,0-4.3-0.6-6.1-1.9c-1.7-1.3-2.7-3.3-2.9-5.9
							C112.5,31.9,116.2,31.9,116.2,31.9z"/>
						<path id="path4999" style="&st1;" d="M144.4,22.8c1.5,0,2.8-0.4,3.6-1.3c0.9-0.9,1.3-1.9,1.3-3.1c0-1-0.4-2-1.3-2.9
							c-0.8-0.9-2.1-1.3-3.8-1.3c-1.7,0-2.9,0.4-3.7,1.3c-0.8,0.9-1.1,1.9-1.1,3.1c0,1.3,0.5,2.3,1.5,3.1S143.1,22.8,144.4,22.8z
							 M144.6,36.6c1.6,0,3-0.4,4-1.3c1.1-0.9,1.6-2.2,1.6-3.9c0-1.8-0.6-3.2-1.7-4.1s-2.5-1.4-4.3-1.4c-1.7,0-3.1,0.5-4.1,1.4
							c-1.1,1-1.6,2.3-1.6,4c0,1.5,0.5,2.7,1.4,3.8C141.1,36.1,142.6,36.6,144.6,36.6L144.6,36.6z M139.6,24.1
							c-1-0.4-1.7-0.9-2.3-1.5c-1-1-1.5-2.4-1.5-4.1c0-2.1,0.8-3.9,2.3-5.4s3.7-2.2,6.4-2.2c2.7,0,4.8,0.7,6.3,2.1
							c1.5,1.4,2.3,3.1,2.3,4.9c0,1.7-0.4,3.2-1.3,4.2c-0.5,0.6-1.3,1.2-2.3,1.8c1.2,0.5,2.1,1.1,2.7,1.8c1.2,1.3,1.9,3,1.9,5.1
							c0,2.5-0.8,4.6-2.5,6.3c-1.7,1.7-4,2.6-7,2.6c-2.7,0-5-0.7-6.9-2.2c-1.9-1.5-2.8-3.6-2.8-6.4c0-1.7,0.4-3.1,1.2-4.3
							C136.8,25.7,138,24.7,139.6,24.1L139.6,24.1z"/>
					</g>
				</g>
				
					<g id="text4214" transform="translate(420.124760, 397.773440) scale(-1, 1) translate(-420.124760, -397.773440) translate(325.124760, 373.773440)">
					<g id="tspan4216">
						<path id="path4972" style="&st1;" d="M3.8,19.2v-2.7c2.5-0.2,4.3-0.7,5.3-1.2c1-0.6,1.8-2,2.2-4.1h2.8V39h-3.8V19.2
							C10.4,19.2,3.8,19.2,3.8,19.2z"/>
						<path id="path4974" style="&st1;" d="M32.7,39.8c-3.3,0-5.7-0.9-7.2-2.7c-1.5-1.8-2.2-4-2.2-6.6h3.7c0.2,1.8,0.5,3.1,1,3.9
							c0.9,1.5,2.6,2.2,4.9,2.2c1.8,0,3.3-0.5,4.5-1.5s1.7-2.3,1.7-3.8c0-1.9-0.6-3.3-1.8-4c-1.2-0.8-2.8-1.2-4.9-1.2
							c-0.2,0-0.5,0-0.7,0c-0.2,0-0.5,0-0.7,0V23c0.4,0,0.7,0.1,0.9,0.1c0.2,0,0.5,0,0.8,0c1.3,0,2.4-0.2,3.2-0.6
							c1.5-0.7,2.2-2,2.2-3.9c0-1.4-0.5-2.5-1.5-3.2c-1-0.8-2.1-1.1-3.5-1.1c-2.3,0-4,0.8-4.9,2.3c-0.5,0.9-0.8,2.1-0.8,3.7h-3.5
							c0-2.1,0.4-3.9,1.3-5.3c1.4-2.6,4-3.9,7.6-3.9c2.9,0,5.1,0.6,6.6,1.9c1.6,1.3,2.3,3.1,2.3,5.5c0,1.7-0.5,3.1-1.4,4.2
							c-0.6,0.7-1.3,1.2-2.2,1.6c1.5,0.4,2.6,1.2,3.4,2.3c0.8,1.1,1.3,2.6,1.3,4.2c0,2.7-0.9,4.8-2.6,6.5S35.9,39.8,32.7,39.8z"/>
						<path id="path4976" style="&st1;" d="M45.8,39c0.1-2.4,0.6-4.5,1.5-6.3c0.9-1.8,2.6-3.4,5.1-4.9l3.8-2.2
							c1.7-1,2.9-1.8,3.5-2.5c1.1-1.1,1.6-2.3,1.6-3.7c0-1.6-0.5-2.9-1.5-3.9c-1-1-2.3-1.4-3.9-1.4c-2.4,0-4.1,0.9-5,2.7
							c-0.5,1-0.8,2.3-0.8,4.1h-3.6c0-2.4,0.5-4.4,1.3-6c1.5-2.7,4.2-4.1,8.1-4.1c3.2,0,5.5,0.9,7,2.6c1.5,1.7,2.2,3.7,2.2,5.8
							c0,2.2-0.8,4.2-2.4,5.7c-0.9,0.9-2.5,2-4.9,3.4l-2.7,1.5c-1.3,0.7-2.3,1.4-3,2c-1.3,1.1-2.1,2.4-2.5,3.8H65V39H45.8z"/>
						<path id="path4978" style="&st1;" d="M70.6,19.2v-2.7c2.5-0.2,4.3-0.7,5.3-1.2c1-0.6,1.8-2,2.2-4.1H81V39h-3.8V19.2H70.6z"/>
						<path id="path4980" style="&st1;" d="M110.5,39.8c-3.3,0-5.7-0.9-7.2-2.7c-1.5-1.8-2.2-4-2.2-6.6h3.7c0.2,1.8,0.5,3.1,1,3.9
							c0.9,1.5,2.6,2.2,4.9,2.2c1.8,0,3.3-0.5,4.5-1.5c1.1-1,1.7-2.3,1.7-3.8c0-1.9-0.6-3.3-1.8-4c-1.2-0.8-2.8-1.2-4.9-1.2
							c-0.2,0-0.5,0-0.7,0c-0.2,0-0.5,0-0.7,0V23c0.4,0,0.7,0.1,0.9,0.1c0.2,0,0.5,0,0.8,0c1.3,0,2.4-0.2,3.2-0.6
							c1.5-0.7,2.2-2,2.2-3.9c0-1.4-0.5-2.5-1.5-3.2c-1-0.8-2.1-1.1-3.5-1.1c-2.3,0-4,0.8-4.9,2.3c-0.5,0.9-0.8,2.1-0.8,3.7h-3.5
							c0-2.1,0.4-3.9,1.3-5.3c1.4-2.6,4-3.9,7.6-3.9c2.9,0,5.1,0.6,6.6,1.9c1.6,1.3,2.3,3.1,2.3,5.5c0,1.7-0.5,3.1-1.4,4.2
							c-0.6,0.7-1.3,1.2-2.2,1.6c1.5,0.4,2.6,1.2,3.4,2.3c0.8,1.1,1.2,2.6,1.3,4.2c0,2.7-0.9,4.8-2.6,6.5S113.8,39.8,110.5,39.8
							L110.5,39.8z"/>
						<path id="path4982" style="&st1;" d="M135.6,29.1V16.4l-9,12.7H135.6z M135.7,39v-6.8h-12.3v-3.4L136.3,11h3v18.1h4.1v3.1
							h-4.1V39H135.7z"/>
						<path id="path4984" style="&st1;" d="M149.6,31.9c0.2,2,1.2,3.4,2.8,4.2c0.8,0.4,1.8,0.6,2.9,0.6c2.1,0,3.6-0.7,4.6-2
							c1-1.3,1.5-2.8,1.5-4.4c0-2-0.6-3.5-1.8-4.5c-1.2-1.1-2.6-1.6-4.3-1.6c-1.2,0-2.3,0.2-3.1,0.7c-0.9,0.5-1.6,1.1-2.2,2l-3-0.2
							l2.1-15.1h14.5v3.4h-11.9l-1.2,7.8c0.7-0.5,1.3-0.9,1.9-1.1c1-0.4,2.2-0.6,3.6-0.6c2.6,0,4.7,0.8,6.5,2.5
							c1.8,1.7,2.7,3.8,2.7,6.3c0,2.6-0.8,5-2.5,7c-1.6,2-4.2,3-7.8,3c-2.3,0-4.3-0.6-6.1-1.9c-1.7-1.3-2.7-3.3-2.9-5.9H149.6
							L149.6,31.9z"/>
						<path id="path4986" style="&st1;" d="M171.9,31.9c0.2,2,1.2,3.4,2.8,4.2c0.8,0.4,1.8,0.6,2.9,0.6c2.1,0,3.6-0.7,4.6-2
							s1.5-2.8,1.5-4.4c0-2-0.6-3.5-1.8-4.5c-1.2-1.1-2.6-1.6-4.3-1.6c-1.2,0-2.3,0.2-3.1,0.7c-0.9,0.5-1.6,1.1-2.2,2l-3-0.2
							l2.1-15.1h14.5v3.4H174l-1.2,7.8c0.7-0.5,1.3-0.9,1.9-1.1c1-0.4,2.2-0.6,3.6-0.6c2.6,0,4.7,0.8,6.5,2.5s2.7,3.8,2.7,6.3
							c0,2.6-0.8,5-2.5,7c-1.6,2-4.2,3-7.8,3c-2.3,0-4.3-0.6-6.1-1.9c-1.7-1.3-2.7-3.3-2.9-5.9H171.9z"/>
					</g>
				</g>
				<rect id="rect4300" y="52" width="750" height="102"/>
				<rect id="rect4322" x="16" y="177" style="&st2;" width="562" height="80"/>
				<g id="text4324" transform="translate(477.000000, 199.000000)">
					<polygon id="path4331" points="21.9,31.6 14.6,31.6 14.6,0.6 11,0.6 0.8,6.9 2.6,9.9 10.5,5.1 10.5,31.6 2,31.6 2,35 21.9,35 
											"/>
					<path id="path4333" d="M39.4,0c-4.6,0-7.8,1.6-10.5,4.9l2.9,2.2c2.2-2.6,4.1-3.7,7.5-3.7c3.8,0,6.1,2.4,6.1,6.3
						c0,5.6-2.8,9.4-15.8,21.9V35h20.5l0.5-3.5H34.4C45.7,21.1,49.8,15.9,49.8,9.6C49.8,4.2,45.9,0,39.4,0L39.4,0z"/>
					<path id="path4335" d="M69.4,0c-3.5,0-6.9,1.2-9.8,4l2.3,2.6c2.3-2.2,4.4-3.2,7.3-3.2c3.7,0,6.6,2.1,6.6,5.8
						c0,4.2-3.3,6.1-6.6,6.1h-2l-0.5,3.3h2.9c4,0,7.1,1.6,7.1,6.6c0,4.3-2.8,7.1-7.7,7.1c-2.8,0-5.7-1.2-7.7-3.5L58.6,31
						c2.6,3.2,6.7,4.5,10.5,4.5c7.1,0,12-4.5,12-10.4c0-5.4-3.8-8.1-7.9-8.5c3.7-0.7,6.8-3.8,6.8-8C80,4,75.9,0,69.4,0L69.4,0z"/>
				</g>
				<path id="rect4328" style="&st3;" d="M41,310h83c13.8,0,25,11.2,25,25v45c0,13.8-11.2,25-25,25H41c-13.8,0-25-11.2-25-25v-45
					C16,321.2,27.2,310,41,310z"/>
			</g>
		</g>
	</g>
</g>
</svg>
