<?xml version="1.0" encoding="UTF-8"?>
<svg width="20px" height="21px" viewBox="0 0 20 21" version="1.1" xmlns="http://www.w3.org/2000/svg" xmlns:xlink="http://www.w3.org/1999/xlink">
    <!-- Generator: Sketch 46.2 (44496) - http://www.bohemiancoding.com/sketch -->
    <title>Page 1</title>
    <desc>Created with Sketch.</desc>
    <defs></defs>
    <g id="Page-1" stroke="none" stroke-width="1" fill="none" fill-rule="evenodd">
        <g id="Контакты_Пермь" transform="translate(-55.000000, -228.000000)">
            <g id="Page-1" transform="translate(55.000000, 228.000000)">
                <g id="Group-3" fill="#03997C">
                    <path d="M3.4872,0.8428 C3.2102,0.8428 2.9452,0.9638 2.7412,1.1828 L1.9492,2.0868 C1.7252,2.3958 1.5192,2.7868 1.3632,3.2148 C1.2202,3.6188 1.1302,4.0098 1.0882,4.4018 C0.7202,7.6798 2.1452,10.7078 6.0052,14.8538 C11.3072,20.5468 15.5142,20.1468 15.6872,20.1248 C16.0522,20.0778 16.4082,19.9818 16.7702,19.8308 C17.1532,19.6708 17.5212,19.4468 17.8352,19.1838 L18.6542,18.3528 C19.0642,17.9118 19.0812,17.1658 18.6822,16.7348 L15.7572,13.5938 C15.5792,13.4038 15.3402,13.2978 15.0842,13.2978 L15.0832,13.2978 C14.8062,13.2988 14.5422,13.4188 14.3382,13.6368 L12.5912,15.5138 L11.9502,15.1338 C10.9972,14.5668 9.6902,13.7888 8.2972,12.2928 C6.9082,10.8008 6.1822,9.3968 5.6522,8.3718 L5.3272,7.7538 L7.0452,5.9098 C7.4662,5.4568 7.4842,4.7118 7.0842,4.2808 L4.1592,1.1398 C3.9812,0.9478 3.7422,0.8428 3.4872,0.8428 M15.3822,20.9998 C14.0322,20.9998 10.0382,20.5188 5.2592,15.4688 C1.1632,11.1418 -0.3418,7.9268 0.0642,4.3738 C0.1132,3.9118 0.2212,3.4538 0.3922,2.9758 C0.5832,2.4618 0.8352,1.9938 1.1422,1.5798 L1.4752,1.2038 L1.9742,0.6428 C2.7722,-0.2002 4.1202,-0.2092 4.8752,0.5888 L7.8092,3.6898 C8.5692,4.4928 8.5502,5.8168 7.7702,6.6418 L6.5312,7.9498 C7.0622,8.9588 7.7522,10.2498 9.0262,11.5958 C10.2992,12.9428 11.5152,13.6658 12.4152,14.1938 L13.6172,12.9238 C14.0132,12.5058 14.5392,12.2748 15.0972,12.2748 L15.1002,12.2748 C15.6362,12.2748 16.1362,12.4888 16.5082,12.8798 L19.4442,15.9818 C20.2002,16.7848 20.1832,18.1088 19.4042,18.9338 L18.5372,19.7958 C18.1072,20.1538 17.6602,20.4208 17.1772,20.6198 C16.7302,20.8028 16.2882,20.9208 15.8242,20.9798 C15.7532,20.9868 15.6032,20.9998 15.3822,20.9998" id="Fill-1"></path>
                </g>
                <path d="M18.7274,9.4805 C18.4004,7.0545 17.5444,5.1345 16.1814,3.7735 C14.8204,2.4155 12.9224,1.5835 10.5394,1.3005 L10.6584,0.3075 C13.2694,0.6175 15.3664,1.5455 16.8904,3.0665 C18.4114,4.5855 19.3634,6.6985 19.7204,9.3475 L18.7274,9.4805 Z" id="Fill-4" fill="#0A9B7F"></path>
                <path d="M14.8285,9.9321 C14.6465,8.5761 14.1715,7.5071 13.4175,6.7541 C12.6655,6.0041 11.6105,5.5431 10.2815,5.3861 L10.3995,4.3921 C11.9565,4.5771 13.2115,5.1341 14.1255,6.0471 C15.0385,6.9581 15.6085,8.2201 15.8215,9.7981 L14.8285,9.9321 Z" id="Fill-6" fill="#0A9B7F"></path>
            </g>
        </g>
    </g>
</svg>